<?xml version="1.0" encoding="utf-8"?>
<!-- Generator: Adobe Illustrator 22.1.0, SVG Export Plug-In . SVG Version: 6.00 Build 0)  -->
<svg version="1.1" id="Layer_1" xmlns="http://www.w3.org/2000/svg" xmlns:xlink="http://www.w3.org/1999/xlink" x="0px" y="0px"
	 viewBox="0 0 248 36" style="enable-background:new 0 0 248 36;" xml:space="preserve">
<style type="text/css">
	.st0{fill:#D8004D;}
	.st1{fill:#FFFFFF;}
</style>
<path class="st0" d="M32.7,32.6c-4.4,2.3-9.3,3.3-14.3,3.3c-10.6,0-18.4-7-18.4-18C0,7,7.8,0,18.4,0C23.8,0,28.6,1.2,32,4.4
	l-5.3,5.8c-2-2.1-4.5-3.2-8.3-3.2C12,7,7.8,11.6,7.8,18S12,29,18.4,29c3.3,0,5.7-0.9,7.1-1.7v-5.5h-6.1v-6.9h13.4L32.7,32.6
	L32.7,32.6z M46.5,14.8v6.9l-2.1,2.2V35H38V23.8l-2.1-2.2v-6.9h10.6V14.8z M41.2,3.1c2.3,0,4.2,1.9,4.2,4.2s-1.9,4.2-4.2,4.2
	S37,9.6,37,7.3C37,4.9,38.9,3.1,41.2,3.1 M49.6,14.8H63v6.9h-6.1v5.5c1.4,0.8,3.8,1.7,7.1,1.7c6.4,0,10.6-4.6,10.6-11
	s-4.2-11-10.6-11c-3.8,0-6.3,1.1-8.3,3.2l-5.3-5.8C53.7,1.2,58.5,0,63.9,0c10.7,0,18.4,7,18.4,17.9s-7.8,17.9-18.4,17.9
	c-5,0-9.9-1-14.3-3.3C49.6,32.5,49.6,14.8,49.6,14.8z"/>
<path class="st1" d="M86.8,0.9h7.5v12.7h14.6V0.9h7.5V35h-7.5V20.2H94.3V35h-7.5V0.9z M139,28.9c6.4,0,10.6-4.6,10.6-11
	s-4.2-11-10.6-11s-10.6,4.6-10.6,11S132.6,28.9,139,28.9 M139,0c10.7,0,18.4,7,18.4,17.9s-7.8,17.9-18.4,17.9
	c-10.7,0-18.4-7-18.4-17.9S128.4,0,139,0 M190.4,21.8c0,8.1-4.9,14-14.4,14s-14.4-6-14.4-14v-21h7.5v20.7c0,4.2,2.9,7.4,6.9,7.4
	s6.8-3.2,6.8-7.4V0.9h7.5L190.4,21.8L190.4,21.8z M213.2,9.2c-1.2-1.5-3.6-2.3-5.4-2.3c-2.1,0-5.1,1-5.1,3.5
	c0,6.2,15.7,2.2,15.7,14.2c0,7.6-6.1,11.2-13.2,11.2c-4.4,0-8.2-1.3-11.5-4.3l5.4-5.9c1.5,2,4,3.2,6.6,3.2c2.5,0,5.2-1.2,5.2-3.6
	c0-6.3-16-2.9-16-14.3c0-7.3,6.3-11.1,13-11.1c3.9,0,7.6,1,10.5,3.6C218.4,3.4,213.2,9.2,213.2,9.2z M223.4,0.9h23.2v6.9h-15.7v6.4
	h14.8v6.9h-14.8V28h16.5v7h-24.1V0.9H223.4z"/>
</svg>
