<svg xmlns="http://www.w3.org/2000/svg" width="24" height="24" viewBox="0 0 24 24">
  <title>icon-rate</title>
  <g>
    <path d="M8.91171,20.03524a1.58917,1.58917,0,0,1-2.2471,0L.96582,14.33751A1.58919,1.58919,0,0,1,.9651,12.09007l.00072-.00072L12.09007.9651A1.58914,1.58914,0,0,1,13.21309.5h5.69773A1.58918,1.58918,0,0,1,20.5,2.08918V7.788a1.58917,1.58917,0,0,1-.4651,1.123" style="fill: none;stroke: #1f1847;stroke-linecap: round;stroke-linejoin: round"/>
    <path d="M16.08154,4.45a.5.5,0,1,0,.5.5.5.5,0,0,0-.5-.5h0" style="fill: none;stroke: #1f1847;stroke-linecap: round;stroke-linejoin: round"/>
    <circle cx="17.5" cy="17.5" r="6" style="fill: none;stroke: #1f1847;stroke-linecap: round;stroke-linejoin: round"/>
    <path d="M14,16.5h4.6" style="fill: none;stroke: #1f1847;stroke-linecap: round;stroke-linejoin: round"/>
    <path d="M14,18.5h4.6" style="fill: none;stroke: #1f1847;stroke-linecap: round;stroke-linejoin: round"/>
    <path d="M18.5,14a3.5,3.5,0,0,0,0,7" style="fill: none;stroke: #1f1847;stroke-linecap: round;stroke-linejoin: round"/>
  </g>
</svg>
