{
    "ios": {
        "debug": {
            "codeSignIdentity": "iPhone Distribution",
            "provisioningProfile": "95a9d73e-43b4-44e1-9cb7-63f43a2e29a9",
            "developmentTeam": "9WJS792378",
            "packageType": "ad-hoc",
            "buildFlag": [
                "-UseModernBuildSystem=0"
            ]
        },
        "release": {
            "codeSignIdentity": "iPhone Distribution",
            "provisioningProfile": "99298672-0fa9-4d32-9797-b9760f557b73",
            "developmentTeam": "9WJS792378",
            "packageType": "app-store",
            "buildFlag": [
                "-UseModernBuildSystem=0"
            ]
        }
    }
}